blocklist:
+--------------+----------------------+-----------------+---------------------+----------------+
| id (BIG INT) | bl_source (TINYTEXT) | site (TINYTEXT) | site_status BOOLEAN | comment (TEXT) |
+--------------+----------------------+-----------------+---------------------+----------------+

dnslog:
+--------------+---------------------+----------------+------------------------+--------------------+
| id (BIG INT) | log_time (DATETIME) | sys (TINYTEXT) | dns_request (TINYTEXT) | dns_result CHAR(1) |
+--------------+---------------------+----------------+------------------------+--------------------+

weblog:
+--------------+---------------------+-----------------+---------------------+-----------------+-----------------+-------------------+--------------------+
| id (BIG INT) | log_time (DATETIME) | site (TINYTEXT) | http_method CHAR(4) | uri_path (TEXT) | referrer (TEXT) | user_agent (TEXT) | remote_host (TEXT) |
+--------------+---------------------+-----------------+---------------------+-----------------+-----------------+-------------------+--------------------+

config:
+-----------------+----------------------+-------------------------------+---------------------+--------------------------+
| config_id (INT) | config_type CHAR(15) | option_name (TINYTEXT UNIQUE) | option_value (TEXT) | option_enabled (BOOLEAN) |
+-----------------+----------------------+-------------------------------+---------------------+--------------------------+

users: (not used yet)
+----------+-----------------+-------------+---------------+
| id (INT) | user (TINYTEXT) | pass (TEXT) | level CHAR(1) |
+----------+-----------------+-------------+---------------+

whois:
+-------------+----------------------+-----------------+---------------------+
| id (BIGINT) | save_time (DATETIME) | site (TINYTEXT) | record (MEDIUMTEXT) | 
+-------------+----------------------+-----------------+---------------------+

